…
# generate recommendations
results <- iceData::user_preferences(weights = w)

# print results
results                     
#> # A tibble: 32 x 3
#>    id    name          score
#>    <chr> <chr>         <dbl>
#>  1 CLO   Clozapine    -77.0 
#>  2 ZOT   Zotepine     -42.2 
#>  3 PERA  Perazine     -13.4 
#>  4 FPX   Flupentixol  -10.4 
#>  5 ARI   Aripiprazole  -7.1 
#>  6 PIM   Pimozide      -3.91
#>  7 CAR   Cariprazine   -3.19
#>  8 QUE   Quetiapine    -1.17
#>  9 CPX   Clopenthixol   0   
#> 10 FLU   Fluphenazine   0   
#> # … with 22 more rows
```
…
# filter for medications with valid licensing status in Germany
meds_germany <- iceData::meds %>% filter(Germany == 1)
results_germany <- iceData::user_preferences(data = meds_germany, weights = w)

# view results
results_germany
#> # A tibble: 23 x 3
#>    id    name          score
#>    <chr> <chr>         <dbl>
#>  1 CLO   Clozapine    -77.0
#>  2 ZOT   Zotepine     -42.2
#>  3 FPX   Flupentixol  -10.4
#>  4 ARI   Aripiprazole  -7.1
#>  5 PIM   Pimozide      -3.91
#>  6 CAR   Cariprazine   -3.19
#>  7 QUE   Quetiapine    -1.17
#>  8 CPX   Clopenthixol   0
#>  9 LOX   Loxapine       0
#> 10 PEN   Penfluridol    0
#> # … with 13 more rows
```
…
